{
    "cordova-plugin-whitelist": {
        "source": {
            "type": "registry",
            "id": "cordova-plugin-whitelist@1.0.0"
        },
        "is_top_level": true,
        "variables": {}
    },
    "com.ionic.keyboard": {
        "source": {
            "type": "registry",
            "id": "com.ionic.keyboard"
        },
        "is_top_level": true,
        "variables": {}
    }
}